Chapter 1 High throughput sequencing | RNA-Seq analysis with R and Bioconductor
…
featureCounts \
-p \                        # paired-end
--countReadPairs \          # fragments counted instead of reads
-a annotations.gtf \        # name of the annotation file
-t exon \                   # feature type in GTF annotation
-g gene_id \                # Meta-features used in GTF annotation
-s 0 \                      # strand-specificity
-o SampleName_counts.tsv \  # Name of the output file
SampleName.bam              # bam file

Here is an example of FeatureCounts output file. The last column gives
the raw counts of each gene in that sample.

## # A tibble: 58,735 × 7
##    Geneid          Chr          Start End   Strand Length ../processed_data/ba…¹
##    <chr>           <chr>        <chr> <chr> <chr>   <dbl>                  <dbl>
##  1 ENSG00000223972 1;1;1;1;1;1… 1186… 1222… +;+;+…   1735                      0
##  2 ENSG00000227232 1;1;1;1;1;1… 1440… 1450… -;-;-…   1351                     14
##  3 ENSG00000278267 1            17369 17436 -          68                      8
##  4 ENSG00000243485 1;1;1;1;1    2955… 3003… +;+;+…   1021                      0
##  5 ENSG00000284332 1            30366 30503 +         138                      0
##  6 ENSG00000237613 1;1;1;1;1    3455… 3517… -;-;-…   1219                      0
##  7 ENSG00000268020 1            52473 53312 +         840                      0
##  8 ENSG00000240361 1;1;1;1      5759… 5765… +;+;+…   1414                      0
##  9 ENSG00000186092 1;1;1;1      6541… 6543… +;+;+…   2618                      0
## 10 ENSG00000238009 1;1;1;1;1;1… 8929… 9162… -;-;-…   3726                      3
## # ℹ 58,725 more rows
## # ℹ abbreviated name: ¹​`../processed_data/bam/sample1.bam`
…
