Chapter 7 Enrichment analyses | RNA-Seq analysis with R and Bioconductor
…
Question

How many genes belong to the GOBP_REGULATION_OF_LYMPHOCYTE_MIGRATION
geneset?

Solution

GO_BP |>
  filter(gs_name == "GOBP_REGULATION_OF_LYMPHOCYTE_MIGRATION")

## # A tibble: 71 × 2
##    gs_name                                 gene_symbol
##    <chr>                                   <chr>      
##  1 GOBP_REGULATION_OF_LYMPHOCYTE_MIGRATION ABL1       
##  2 GOBP_REGULATION_OF_LYMPHOCYTE_MIGRATION ABL2       
##  3 GOBP_REGULATION_OF_LYMPHOCYTE_MIGRATION ADAM10     
##  4 GOBP_REGULATION_OF_LYMPHOCYTE_MIGRATION ADAM17     
##  5 GOBP_REGULATION_OF_LYMPHOCYTE_MIGRATION ADAM8      
##  6 GOBP_REGULATION_OF_LYMPHOCYTE_MIGRATION ADTRP      
##  7 GOBP_REGULATION_OF_LYMPHOCYTE_MIGRATION AIF1       
##  8 GOBP_REGULATION_OF_LYMPHOCYTE_MIGRATION AIRE       
##  9 GOBP_REGULATION_OF_LYMPHOCYTE_MIGRATION AKT1       
## 10 GOBP_REGULATION_OF_LYMPHOCYTE_MIGRATION APOD       
## # ℹ 61 more rows

Question

Retrieve Hallmarks genesets

Solution

hallmarks <- msigdbr(species = "Homo sapiens", collection = "H") |>
    dplyr::select(gs_name, gene_symbol)

hallmarks

## # A tibble: 7,331 × 2
##    gs_name               gene_symbol
##    <chr>                 <chr>      
##  1 HALLMARK_ADIPOGENESIS ABCA1      
##  2 HALLMARK_ADIPOGENESIS ABCB8      
##  3 HALLMARK_ADIPOGENESIS ACAA2      
##  4 HALLMARK_ADIPOGENESIS ACADL      
##  5 HALLMARK_ADIPOGENESIS ACADM      
##  6 HALLMARK_ADIPOGENESIS ACADS      
##  7 HALLMARK_ADIPOGENESIS ACLY       
##  8 HALLMARK_ADIPOGENESIS ACO2       
##  9 HALLMARK_ADIPOGENESIS ACOX1      
## 10 HALLMARK_ADIPOGENESIS ADCY6      
## # ℹ 7,321 more rows
…
ORA_res_new_thr <- enricher(gene          = genes_DE,
                            universe      = geneList,
                            pAdjustMethod = "BH",
                            qvalueCutoff  = 1,
                            pvalueCutoff  = 1,
                            TERM2GENE     = GO_BP)

ORA_res_GO_new_thr <- as_tibble(ORA_res_new_thr) |>
    filter(p.adjust < 0.1)

ORA_res_GO_new_thr |>
  select(ID, GeneRatio, BgRatio, pvalue, p.adjust)

## # A tibble: 63 × 5
##    ID                                         GeneRatio BgRatio  pvalue p.adjust
##    <chr>                                      <chr>     <chr>     <dbl>    <dbl>
##  1 GOBP_RESPONSE_TO_TRANSFORMING_GROWTH_FACT… 16/248    240/12… 3.12e-5   0.0695
##  2 GOBP_SYMBIONT_ENTRY_INTO_HOST              10/248    105/12… 5.28e-5   0.0695
##  3 GOBP_POSITIVE_REGULATION_OF_MAPK_CASCADE   19/248    337/12… 5.80e-5   0.0695
##  4 GOBP_GLYCOPROTEIN_BIOSYNTHETIC_PROCESS     16/248    260/12… 8.14e-5   0.0695
##  5 GOBP_PROTEIN_O_LINKED_GLYCOSYLATION        11/248    134/12… 8.83e-5   0.0695
##  6 GOBP_RESPONSE_TO_FIBROBLAST_GROWTH_FACTOR  9/248     91/122… 9.33e-5   0.0695
##  7 GOBP_CELL_FATE_COMMITMENT                  13/248    187/12… 1.14e-4   0.0695
##  8 GOBP_RESPONSE_TO_WOUNDING                  22/248    449/12… 1.22e-4   0.0695
##  9 GOBP_CD4_POSITIVE_OR_CD8_POSITIVE_ALPHA_B… 5/248     26/122… 1.54e-4   0.0702
## 10 GOBP_POSITIVE_REGULATION_OF_CELL_DEVELOPM… 18/248    334/12… 1.61e-4   0.0702
## # ℹ 53 more rows
…
set.seed(1)
GSEA_res <- GSEA(geneList,
             seed = TRUE,
             TERM2GENE = hallmarks,
             verbose = FALSE,
             by = "fgsea",
             pvalueCutoff = 1,
             pAdjustMethod = "BH",
             eps = 0)

GSEA_hallmarks_tbl <- as_tibble(GSEA_res) |> filter(p.adjust < 0.05)
GSEA_hallmarks_tbl

## # A tibble: 24 × 12
##    ID       Description setSize enrichmentScore   NES   pvalue p.adjust   qvalue
##    <chr>    <chr>         <int>           <dbl> <dbl>    <dbl>    <dbl>    <dbl>
##  1 HALLMAR… HALLMARK_M…      58           0.699  2.45 1   e-10  2.5 e-9 6.26e-10
##  2 HALLMAR… HALLMARK_M…     199           0.525  2.16 1   e-10  2.5 e-9 6.26e-10
##  3 HALLMAR… HALLMARK_H…     176           0.483  1.99 3.64e- 8  5.07e-7 1.27e- 7
##  4 HALLMAR… HALLMARK_O…     199           0.475  1.95 4.05e- 8  5.07e-7 1.27e- 7
##  5 HALLMAR… HALLMARK_E…     188           0.479  1.95 8.56e- 8  8.56e-7 2.14e- 7
##  6 HALLMAR… HALLMARK_I…     138           0.480  1.91 4.09e- 6  2.56e-5 6.40e- 6
##  7 HALLMAR… HALLMARK_I…      62           0.530  1.88 1.44e- 4  6.01e-4 1.50e- 4
##  8 HALLMAR… HALLMARK_M…     198          -0.394 -1.85 1.89e- 7  1.57e-6 3.94e- 7
##  9 HALLMAR… HALLMARK_G…     184           0.446  1.81 3.24e- 6  2.32e-5 5.80e- 6
## 10 HALLMAR… HALLMARK_M…     146           0.452  1.78 3.06e- 5  1.53e-4 3.84e- 5
## # ℹ 14 more rows
## # ℹ 4 more variables: rank <int>, leading_edge <chr>, core_enrichment <chr>,
## #   log2err <dbl>
…
