Chapter 6 Differential expression analysis | RNA-Seq analysis with R and Bioconductor
…
6.2.4.2 Exploring results

res_tbl <- as_tibble(res, rownames = "gene")
res_tbl

## # A tibble: 24,837 × 7
##    gene       baseMean log2FoldChange lfcSE   stat pvalue    padj
##    <chr>         <dbl>          <dbl> <dbl>  <dbl>  <dbl>   <dbl>
##  1 MIR6859-1    4.63           -1.02  1.01  -1.01  0.311   0.486 
##  2 OR4G4P       0.0993          0     4.41   0     1      NA     
##  3 CICP27       4.95           -0.526 0.841 -0.625 0.532   0.701 
##  4 RPL23AP21    9.86           -1.21  0.562 -2.15  0.0314  0.0866
##  5 RPL23AP24    0.861          -0.738 2.14  -0.344 0.731  NA     
##  6 MTND1P23    17.7            -0.119 0.550 -0.217 0.828   0.919 
##  7 MTND2P28   298.             -0.610 0.270 -2.26  0.0238  0.0698
##  8 MTCO1P12   892.             -0.218 0.162 -1.35  0.179   0.328 
##  9 MTCO2P12    36.3            -0.438 0.326 -1.34  0.179   0.328 
## 10 MTATP6P1  9784.             -0.219 0.194 -1.13  0.259   0.428 
## # ℹ 24,827 more rows
…
pvalue: The p-value of the test for the gene.

padj: The p-value adjusted for multiple testing.

Question

Inspect the results table and identify the “best gene” (showing the
lowest padjusted value).

Solution

res_tbl |>
  arrange(padj)

## # A tibble: 24,837 × 7
##    gene    baseMean log2FoldChange lfcSE  stat   pvalue     padj
##    <chr>      <dbl>          <dbl> <dbl> <dbl>    <dbl>    <dbl>
##  1 PGRMC1     1539.          -4.67 0.255 -18.3 9.69e-75 1.47e-70
##  2 ZBED2       135.           6.25 0.366  17.1 2.09e-65 1.59e-61
##  3 ST3GAL1    1201.           3.00 0.220  13.6 2.05e-42 1.04e-38
##  4 CST6        107.           4.29 0.330  13.0 1.23e-38 4.66e-35
##  5 YWHAH      2879.           2.05 0.166  12.4 3.01e-35 9.15e-32
##  6 STEAP3      576.           3.45 0.279  12.4 4.48e-35 1.13e-31
##  7 AKT1S1     1389.           1.35 0.110  12.3 1.04e-34 2.26e-31
##  8 PRUNE1      240.          -2.27 0.186 -12.2 2.58e-34 4.90e-31
##  9 TRIB1       366.           1.95 0.164  11.9 1.73e-32 2.92e-29
## 10 DUSP4       337.          -1.63 0.139 -11.8 5.17e-32 7.86e-29
## # ℹ 24,827 more rows
…
How many genes have no padjusted value? Why?

Solution

summary(res$padj)

##    Min. 1st Qu.  Median    Mean 3rd Qu.    Max.     NAs 
## 0.00000 0.01768 0.25620 0.36123 0.68666 1.00000    9631

Let’s inspect genes with no padjusted values

res_tbl |>
  filter(is.na(padj))

## # A tibble: 9,631 × 7
##    gene       baseMean log2FoldChange lfcSE   stat pvalue  padj
##    <chr>         <dbl>          <dbl> <dbl>  <dbl>  <dbl> <dbl>
##  1 OR4G4P       0.0993          0      4.41  0      1        NA
##  2 RPL23AP24    0.861          -0.738  2.14 -0.344  0.731    NA
##  3 RNU6-1199P   0.0845          0      4.41  0      1        NA
##  4 FAM87B       3.04            1.30   1.42  0.913  0.361    NA
##  5 FAM41C       0.167           0.967  4.41  0.219  0.826    NA
##  6 RNF223       0.620           1.37   2.48  0.550  0.582    NA
##  7 LINC01342    0.321           1.55   4.32  0.359  0.720    NA
##  8 MIR200B      0.161           1.89   4.37  0.432  0.666    NA
##  9 MIR200A      0.307          -1.44   4.18 -0.345  0.730    NA
## 10 MIR429       0.379           1.86   3.90  0.478  0.633    NA
## # ℹ 9,621 more rows
…
